# No previous file for Eikodr
owner = Z08
controller = Z08
add_core = Z08
culture = west_dalr
religion = skaldhyrric_faith

hre = no

base_tax = 4
base_production = 3
base_manpower = 3

trade_goods = cloth

capital = ""

is_city = yes







